292992 935302 525
696140 954935 525
751708 907307 525
886825 895342 445
517842 675477 509
204413 583301 470
370257 840066 525
901852 940970 507
183271 215803 373
89781 111909 354
5282 368418 443
703156 918037 525
466455 879900 525
723419 954178 525
178358 545553 470
516132 571502 452
636653 865808 525
135808 855991 525
963512 970992 458
176268 952990 525
178492 681769 509
486140 902559 525
415001 909831 525
578667 649219 509
798614 832506 450
568672 763814 509
776916 877640 525
763779 948861 525
807137 990721 525
908961 940210 507
703328 706781 504
480959 792966 509
661481 698930 442
752457 828101 468
663514 822525 504
618407 640249 509
821461 856894 525
902811 915408 476
516655 652074 509
346792 979638 525
174042 612952 470
119167 679560 509
699349 857224 525
706386 735161 411
394259 633064 509
4041 227130 386
552499 841747 525
949626 978152 458
637937 848107 525
351033 662034 509
142868 772158 509
655515 994418 525
98102 884597 525
712850 831252 468
575978 763164 509
930027 995528 507
999220 999360 396
725091 955819 525
956254 998973 458
229173 466790 449
558883 898891 525
960158 984537 458
742326 852289 525
837420 910715 525
123930 731647 509
705830 865536 525
182008 721489 509
255241 345957 441
455845 671223 509
406924 909576 525
51849 911919 525
805957 838590 525
410260 507519 444
261697 301372 407
962527 983595 458
229087 495328 449
748197 875470 525
144853 538286 470
123147 313245 443
894902 957153 507
194842 398960 443
537987 770686 509
474136 695910 509
169016 371700 443
761319 850117 525
473863 588362 470
937004 980724 507
376294 401359 436
322928 547869 470
713780 742716 424
152975 770526 509
318926 325556 384
156228 657319 509
903753 990562 507
470165 798025 509
38508 175425 383
911446 948185 507
65971 364548 443
369722 964477 525
339679 791866 509
322983 562284 470
968322 998401 458
117478 120396 336
119311 922304 525
6723 467559 449
237919 976069 525
800072 845181 525
572926 711040 509
44737 295720 443
259789 744576 509
299451 999695 525
691965 885670 525
386847 793901 509
620594 689487 509
504979 770795 509
911724 950362 507
309987 444157 449
112064 836019 509
760836 961468 525
379927 399408 436
576523 609178 434
951368 960199 414
198805 450018 449
357011 665929 509
25090 101870 351
270500 320801 389
427152 490066 444
47495 969235 525
232459 808557 509
82625 412876 449
652477 786129 504
589513 957914 525
410569 595338 470
414043 729925 509
445009 843891 525
963077 967500 414
435929 675510 509
422242 633458 509
950799 997084 458
902388 957031 507
908108 966002 507
812486 855236 525
159469 337567 443
661316 876313 525
552184 725948 509
153480 768973 509
274462 806572 509
191241 970448 525
956627 959999 352
368493 782292 509
423367 497841 444
447283 828610 509
758075 932732 525
518144 873580 525
672892 878254 525
708878 792326 468
105479 761993 509
452434 594865 470
405461 572093 470
168933 519296 470
881805 991296 507
698478 961090 525
577462 695309 509
865412 894423 445
519116 790696 509
959840 977251 458
77535 619842 470
313836 560192 470
812820 935530 525
568599 920769 525
764569 933902 525
602885 964769 525
822957 934710 525
647053 854499 525
681127 825310 504
210179 823088 509
650454 680559 442
743315 941839 525
310433 639959 509
786121 975240 525
354693 565557 470
284089 303966 389
689258 696113 442
291952 302312 371
941961 955031 414
499849 629669 509
162144 884785 525
88638 746126 509
670111 820172 504
725577 779153 468
575790 792344 509
426230 732705 509
868526 939333 476
966219 984262 458
802388 999222 525
32623 751216 509
522419 622669 452
613423 910137 525
938749 972143 507
225815 691688 509
790039 960398 525
611357 614561 354
852513 954008 507
449343 941646 525
459800 511048 444
385922 743891 509
134792 813808 509
773893 824380 468
517868 631534 509
694335 966849 525
516569 840184 525
477339 969902 525
67784 281806 443
274782 326781 389
508194 815343 509
911358 949982 507
250375 417625 449
762475 801521 468
246826 414210 449
649628 915509 525
898795 935725 476
254275 485821 449
871815 993169 507
61021 269570 443
280339 783366 509
709941 982530 525
506427 885798 525
860010 864173 357
302158 448002 449
92801 834180 509
147447 792561 509
620644 965842 525
38934 440227 449
524824 960870 525
106996 587508 470
504442 731881 509
722059 793374 468
63494 324134 443
298942 829571 509
495616 775055 509
903982 929708 476
888245 937411 476
416954 433277 418
496678 507314 426
395107 686610 509
41522 817474 509
105696 782646 509
964487 968094 365
557342 837737 509
454501 995214 525
